{
  "state": "succcess",
  "status": {
    "current": "Processing complete",
    "file": "ANHafsah_Arif_EX7100_CI1874046268_TN01450373078_DT10072019182923_DU231_II1289_UTCST20190710172922_RC13_wav_stereo.stm",
    "message": {
      "segments": [
        {
          "channel": 0,
          "data": {
            "note": "",
            "sentiments": 0
          },
          "end": 1.08,
          "redact": "false",
          "start": 0.0
        },
        {
          "channel": 0,
          "data": {
            "note": "<OVERLAP> hello hello <OVERLAP/> hi may i speak to mister jack malport",
            "sentiments": 0
          },
          "end": 4.91512,
          "redact": "false",
          "start": 1.08
        },
        {
          "channel": 1,
          "data": {
            "note": "yes i'm speaking yes",
            "sentiments": 0
          },
          "end": 7.29,
          "redact": "false",
          "start": 4.91512
        },
        {
          "channel": 0,
          "data": {
            "note": "yeah good after good evening my name is hafsah arif we are conducting a short survey on behalf of elton housing association so just wanted a feed back on the electrical inspection recently carried out at your home um are you happy to go through some very short and quick questions",
            "sentiments": 0
          },
          "end": 22.14,
          "redact": "false",
          "start": 7.29
        },
        {
          "channel": 1,
          "data": {
            "note": "uh yes <OVERLAP> no issues <OVERLAP/> alright",
            "sentiments": 0
          },
          "end": 24.66,
          "redact": "false",
          "start": 22.14
        },
        {
          "channel": 0,
          "data": {
            "note": "<OVERLAP> okay okay <OVERLAP/> i'm calling from b m g research and i will read out small statement so just to confirm your responses will be treated in strictest confidence b m g research abides by the market research societies code of conduct and data protection laws all time you can find out more information about surveys and what we do with the information we collect in our privacy notice would you like the website link would you like to email to yourself or would you want me go straight to the question",
            "sentiments": 0
          },
          "end": 45.84,
          "redact": "false",
          "start": 24.66
        },
        {
          "channel": 1,
          "data": {
            "note": "go straight to the questions please",
            "sentiments": 0
          },
          "end": 48.0,
          "redact": "false",
          "start": 45.84
        },
        {
          "channel": 0,
          "data": {
            "note": "alright so um thank you again for taking part in this survey please note call may me monitored or recorded for training purposes so thinking of your experience of electral electric inspections on this occasion how satisfied or dissatisfied were you with the attitude of the contractor who came out",
            "sentiments": 0
          },
          "end": 63.06,
          "redact": "false",
          "start": 48.0
        },
        {
          "channel": 1,
          "data": {
            "note": "he was extremely nice a very nice young gentleman",
            "sentiments": 0
          },
          "end": 67.53,
          "redact": "false",
          "start": 63.06
        },
        {
          "channel": 0,
          "data": {
            "note": "okay one to four were you very satisfied",
            "sentiments": 0
          },
          "end": 70.2,
          "redact": "false",
          "start": 67.53
        },
        {
          "channel": 1,
          "data": {
            "note": "very sa satisfied yeah",
            "sentiments": 0
          },
          "end": 72.1511,
          "redact": "false",
          "start": 70.2
        },
        {
          "channel": 0,
          "data": {
            "note": "okay perfect and how satisfied or dissatified were you with the contractor cleaning got adequately after their work",
            "sentiments": 0
          },
          "end": 79.17,
          "redact": "false",
          "start": 72.1511
        },
        {
          "channel": 1,
          "data": {
            "note": "i'm sorry what was that question",
            "sentiments": 0
          },
          "end": 81.36,
          "redact": "false",
          "start": 79.17
        },
        {
          "channel": 0,
          "data": {
            "note": "sorry how satisfied or dissatisfied were you with the contractor cleaning got adequately after work",
            "sentiments": 0
          },
          "end": 89.01,
          "redact": "false",
          "start": 81.36
        },
        {
          "channel": 1,
          "data": {
            "note": "uh i really have difficulty hearing what you are saying <OVERLAP> sorry <OVERLAP/>",
            "sentiments": 0
          },
          "end": 94.29,
          "redact": "false",
          "start": 89.01
        },
        {
          "channel": 0,
          "data": {
            "note": "<UNIN/>",
            "sentiments": 0
          },
          "end": 94.38,
          "redact": "false",
          "start": 94.29
        },
        {
          "channel": 0,
          "data": {
            "note": "yes sir i'll <OVERLAP> did they<OVERLAP> explain again",
            "sentiments": 0
          },
          "end": 96.9,
          "redact": "false",
          "start": 94.38
        },
        {
          "channel": 1,
          "data": {
            "note": "<UNIN/> very quickly",
            "sentiments": 0
          },
          "end": 99.09,
          "redact": "false",
          "start": 96.9
        },
        {
          "channel": 0,
          "data": {
            "note": "very quickly so uh very satisfied",
            "sentiments": 0
          },
          "end": 102.584,
          "redact": "false",
          "start": 99.09
        },
        {
          "channel": 1,
          "data": {
            "note": "yes extremely",
            "sentiments": 0
          },
          "end": 103.151,
          "redact": "false",
          "start": 102.584
        },
        {
          "channel": 0,
          "data": {
            "note": "okay wonderful and how satis",
            "sentiments": 0
          },
          "end": 106.41,
          "redact": "false",
          "start": 103.151
        },
        {
          "channel": 0,
          "data": {
            "note": "fied or dissatisfied were you with the overall maintenance survey you received on this occasion",
            "sentiments": 0
          },
          "end": 113.34,
          "redact": "false",
          "start": 106.41
        },
        {
          "channel": 1,
          "data": {
            "note": "uh i think it's been very good the two <UNIN/> been <OVERLAP> yeah <OVERLAP/> very good all the time they have been here",
            "sentiments": 0
          },
          "end": 118.41,
          "redact": "false",
          "start": 113.34
        },
        {
          "channel": 0,
          "data": {
            "note": "okay wonderful and did the contractor arrange an appointment with you for the repair to be carried out",
            "sentiments": 0
          },
          "end": 124.105,
          "redact": "false",
          "start": 118.41
        },
        {
          "channel": 1,
          "data": {
            "note": "it was arranged it the uh yes it was arranged yes",
            "sentiments": 0
          },
          "end": 129.512,
          "redact": "false",
          "start": 124.105
        },
        {
          "channel": 0,
          "data": {
            "note": "alright thanks for that sir and how satisfied or dissatisfied were you with the convenient",
            "sentiments": 0
          },
          "end": 135.75,
          "redact": "false",
          "start": 129.512
        },
        {
          "channel": 0,
          "data": {
            "note": "of the appointment",
            "sentiments": 0
          },
          "end": 137.91,
          "redact": "false",
          "start": 135.75
        },
        {
          "channel": 1,
          "data": {
            "note": "uh well i was satisfied <UNIN/> the job it happened they came quickly and <UNIN/> when they done that yeah",
            "sentiments": 0
          },
          "end": 147.03,
          "redact": "false",
          "start": 137.91
        },
        {
          "channel": 0,
          "data": {
            "note": "okay wonderful where you very satisfied",
            "sentiments": 0
          },
          "end": 150.21,
          "redact": "false",
          "start": 147.03
        },
        {
          "channel": 1,
          "data": {
            "note": "yes",
            "sentiments": 0
          },
          "end": 150.474,
          "redact": "false",
          "start": 150.21
        },
        {
          "channel": 0,
          "data": {
            "note": "alisa",
            "sentiments": 0
          },
          "end": 151.44,
          "redact": "false",
          "start": 150.474
        },
        {
          "channel": 0,
          "data": {
            "note": "very satisfied",
            "sentiments": 0
          },
          "end": 153.27,
          "redact": "false",
          "start": 151.44
        },
        {
          "channel": 1,
          "data": {
            "note": "yes very satisfied",
            "sentiments": 0
          },
          "end": 154.472,
          "redact": "false",
          "start": 153.27
        },
        {
          "channel": 0,
          "data": {
            "note": "yeah perfect",
            "sentiments": 0
          },
          "end": 155.43,
          "redact": "false",
          "start": 154.472
        },
        {
          "channel": 0,
          "data": {
            "note": "and how easy was it to get your electrical inspection completed on a scale of one extremely easy and seven extremely difficult",
            "sentiments": 0
          },
          "end": 163.74,
          "redact": "false",
          "start": 155.43
        },
        {
          "channel": 1,
          "data": {
            "note": "well for me it was extremely easy",
            "sentiments": 0
          },
          "end": 166.68,
          "redact": "false",
          "start": 163.74
        },
        {
          "channel": 0,
          "data": {
            "note": "one",
            "sentiments": 0
          },
          "end": 167.05,
          "redact": "false",
          "start": 166.68
        },
        {
          "channel": 1,
          "data": {
            "note": "uh uh for me it was extremely easy i didn't have much to do",
            "sentiments": 0
          },
          "end": 171.84,
          "redact": "false",
          "start": 167.05
        },
        {
          "channel": 0,
          "data": {
            "note": "alright so would you choose one extremely easy though",
            "sentiments": 0
          },
          "end": 175.26,
          "redact": "false",
          "start": 171.84
        },
        {
          "channel": 1,
          "data": {
            "note": "yeah",
            "sentiments": 0
          },
          "end": 176.217,
          "redact": "false",
          "start": 175.26
        },
        {
          "channel": 0,
          "data": {
            "note": "alright and did you receive any good or help full advise of service from individual workers or members of elton staff",
            "sentiments": 0
          },
          "end": 184.5,
          "redact": "false",
          "start": 176.217
        },
        {
          "channel": 0,
          "data": {
            "note": "um during the <OVERLAP> no no no i don't <OVERLAP/> course",
            "sentiments": 0
          },
          "end": 186.87,
          "redact": "false",
          "start": 184.5
        },
        {
          "channel": 1,
          "data": {
            "note": "uh",
            "sentiments": 0
          },
          "end": 188.04,
          "redact": "false",
          "start": 186.87
        },
        {
          "channel": 1,
          "data": {
            "note": "not not very often i don't trustworthy",
            "sentiments": 0
          },
          "end": 190.794,
          "redact": "false",
          "start": 188.04
        },
        {
          "channel": 0,
          "data": {
            "note": "alright <OVERLAP><OVERLAP/>",
            "sentiments": 0
          },
          "end": 191.782,
          "redact": "false",
          "start": 190.794
        },
        {
          "channel": 1,
          "data": {
            "note": "using very polite <UNIN/> i",
            "sentiments": 0
          },
          "end": 193.89,
          "redact": "false",
          "start": 191.782
        },
        {
          "channel": 0,
          "data": {
            "note": "no",
            "sentiments": 0
          },
          "end": 194.52,
          "redact": "false",
          "start": 193.89
        },
        {
          "channel": 0,
          "data": {
            "note": "enjoy having them",
            "sentiments": 0
          },
          "end": 195.9,
          "redact": "false",
          "start": 194.52
        },
        {
          "channel": 0,
          "data": {
            "note": "ok wonderful so thank you very much for taking time and answering my questions just to remind you my name is hafsah arif and i have been calling from b m g research as the market research agency b m g research complies with the market research society code of conduct this ensures your replies will be treated confidentially if you do wanna check that b m g research is a genuine market research agency there is a market research societies freephone number would you like that number",
            "sentiments": 0
          },
          "end": 221.25,
          "redact": "false",
          "start": 195.9
        },
        {
          "channel": 1,
          "data": {
            "note": "no no i just like <OVERLAP> alright <OVERLAP/>",
            "sentiments": 0
          },
          "end": 223.86,
          "redact": "false",
          "start": 221.25
        },
        {
          "channel": 0,
          "data": {
            "note": "okay thank you so much again sir have a nice evening bye",
            "sentiments": 0
          },
          "end": 227.744,
          "redact": "false",
          "start": 223.86
        },
        {
          "channel": 0,
          "data": {
            "note": "thank you bye",
            "sentiments": 0
          },
          "end": 230.37,
          "redact": "false",
          "start": 227.744
        },
        {
          "channel": 0,
          "data": {
            "note": "",
            "sentiments": 0
          },
          "end": 231.0,
          "redact": "false",
          "start": 230.37
        }
      ]
    }
  }
}
